EESchema Schematic File Version 4
LIBS:Bottom_Battery_Plate-cache
EELAYER 30 0
EELAYER END
$Descr A4 11693 8268
encoding utf-8
Sheet 1 1
Title ""
Date ""
Rev ""
Comp ""
Comment1 ""
Comment2 ""
Comment3 ""
Comment4 ""
$EndDescr
$Comp
L Bottom_Battery_Plate-rescue:BatCont J10
U 1 1 57322269
P 3550 1900
F 0 "J10" H 3400 1900 60  0000 C CNN
F 1 "BatCont" H 3700 1900 60  0000 C CNN
F 2 "Sphere_lib_footprint:Keystone_5224_Battery_Contact" H 3550 1900 60  0001 C CNN
F 3 "" H 3550 1900 60  0000 C CNN
	1    3550 1900
	1    0    0    -1  
$EndComp
$Comp
L Bottom_Battery_Plate-rescue:BatCont J1
U 1 1 573222F6
P 2000 1900
F 0 "J1" H 2300 1900 60  0000 C CNN
F 1 "BatCont" H 2000 1900 60  0000 C CNN
F 2 "Sphere_lib_footprint:Keystone_5224_Battery_Contact" H 2000 1900 60  0001 C CNN
F 3 "" H 2000 1900 60  0000 C CNN
	1    2000 1900
	-1   0    0    -1  
$EndComp
$Comp
L Bottom_Battery_Plate-rescue:BatCont J12
U 1 1 5732270C
P 3550 2650
F 0 "J12" H 3400 2650 60  0000 C CNN
F 1 "BatCont" H 3700 2650 60  0000 C CNN
F 2 "Sphere_lib_footprint:Keystone_5224_Battery_Contact" H 3550 2650 60  0001 C CNN
F 3 "" H 3550 2650 60  0000 C CNN
	1    3550 2650
	1    0    0    -1  
$EndComp
$Comp
L Bottom_Battery_Plate-rescue:BatCont J3
U 1 1 57322712
P 2000 2650
F 0 "J3" H 2300 2650 60  0000 C CNN
F 1 "BatCont" H 2000 2650 60  0000 C CNN
F 2 "Sphere_lib_footprint:Keystone_5224_Battery_Contact" H 2000 2650 60  0001 C CNN
F 3 "" H 2000 2650 60  0000 C CNN
	1    2000 2650
	-1   0    0    -1  
$EndComp
$Comp
L Bottom_Battery_Plate-rescue:BatCont J11
U 1 1 5732281A
P 3550 2300
F 0 "J11" H 3400 2300 60  0000 C CNN
F 1 "BatCont" H 3700 2300 60  0000 C CNN
F 2 "Sphere_lib_footprint:Keystone_5224_Battery_Contact" H 3550 2300 60  0001 C CNN
F 3 "" H 3550 2300 60  0000 C CNN
	1    3550 2300
	1    0    0    -1  
$EndComp
$Comp
L Bottom_Battery_Plate-rescue:BatCont J2
U 1 1 57322820
P 2000 2300
F 0 "J2" H 2300 2300 60  0000 C CNN
F 1 "BatCont" H 2000 2300 60  0000 C CNN
F 2 "Sphere_lib_footprint:Keystone_5224_Battery_Contact" H 2000 2300 60  0001 C CNN
F 3 "" H 2000 2300 60  0000 C CNN
	1    2000 2300
	-1   0    0    -1  
$EndComp
$Comp
L Bottom_Battery_Plate-rescue:BatCont J13
U 1 1 573228A2
P 3550 3050
F 0 "J13" H 3400 3050 60  0000 C CNN
F 1 "BatCont" H 3700 3050 60  0000 C CNN
F 2 "Sphere_lib_footprint:Keystone_5224_Battery_Contact" H 3550 3050 60  0001 C CNN
F 3 "" H 3550 3050 60  0000 C CNN
	1    3550 3050
	1    0    0    -1  
$EndComp
$Comp
L Bottom_Battery_Plate-rescue:BatCont J4
U 1 1 573228A8
P 2000 3050
F 0 "J4" H 2300 3050 60  0000 C CNN
F 1 "BatCont" H 2000 3050 60  0000 C CNN
F 2 "Sphere_lib_footprint:Keystone_5224_Battery_Contact" H 2000 3050 60  0001 C CNN
F 3 "" H 2000 3050 60  0000 C CNN
	1    2000 3050
	-1   0    0    -1  
$EndComp
$Comp
L Bottom_Battery_Plate-rescue:BatCont J14
U 1 1 57322928
P 3550 3450
F 0 "J14" H 3400 3450 60  0000 C CNN
F 1 "BatCont" H 3700 3450 60  0000 C CNN
F 2 "Sphere_lib_footprint:Keystone_5224_Battery_Contact" H 3550 3450 60  0001 C CNN
F 3 "" H 3550 3450 60  0000 C CNN
	1    3550 3450
	1    0    0    -1  
$EndComp
$Comp
L Bottom_Battery_Plate-rescue:BatCont J5
U 1 1 5732292E
P 2000 3450
F 0 "J5" H 2300 3450 60  0000 C CNN
F 1 "BatCont" H 2000 3450 60  0000 C CNN
F 2 "Sphere_lib_footprint:Keystone_5224_Battery_Contact" H 2000 3450 60  0001 C CNN
F 3 "" H 2000 3450 60  0000 C CNN
	1    2000 3450
	-1   0    0    -1  
$EndComp
$Comp
L Bottom_Battery_Plate-rescue:BatCont J15
U 1 1 573229CA
P 3550 3850
F 0 "J15" H 3400 3850 60  0000 C CNN
F 1 "BatCont" H 3700 3850 60  0000 C CNN
F 2 "Sphere_lib_footprint:Keystone_5224_Battery_Contact" H 3550 3850 60  0001 C CNN
F 3 "" H 3550 3850 60  0000 C CNN
	1    3550 3850
	1    0    0    -1  
$EndComp
$Comp
L Bottom_Battery_Plate-rescue:BatCont J6
U 1 1 573229D0
P 2000 3850
F 0 "J6" H 2300 3850 60  0000 C CNN
F 1 "BatCont" H 2000 3850 60  0000 C CNN
F 2 "Sphere_lib_footprint:Keystone_5224_Battery_Contact" H 2000 3850 60  0001 C CNN
F 3 "" H 2000 3850 60  0000 C CNN
	1    2000 3850
	-1   0    0    -1  
$EndComp
$Comp
L Bottom_Battery_Plate-rescue:BatCont J16
U 1 1 57322A90
P 3550 4250
F 0 "J16" H 3400 4250 60  0000 C CNN
F 1 "BatCont" H 3700 4250 60  0000 C CNN
F 2 "Sphere_lib_footprint:Keystone_5224_Battery_Contact" H 3550 4250 60  0001 C CNN
F 3 "" H 3550 4250 60  0000 C CNN
	1    3550 4250
	1    0    0    -1  
$EndComp
$Comp
L Bottom_Battery_Plate-rescue:BatCont J7
U 1 1 57322A96
P 2000 4250
F 0 "J7" H 2300 4250 60  0000 C CNN
F 1 "BatCont" H 2000 4250 60  0000 C CNN
F 2 "Sphere_lib_footprint:Keystone_5224_Battery_Contact" H 2000 4250 60  0001 C CNN
F 3 "" H 2000 4250 60  0000 C CNN
	1    2000 4250
	-1   0    0    -1  
$EndComp
$Comp
L Bottom_Battery_Plate-rescue:BatCont J17
U 1 1 57322B5E
P 3550 4650
F 0 "J17" H 3400 4650 60  0000 C CNN
F 1 "BatCont" H 3700 4650 60  0000 C CNN
F 2 "Sphere_lib_footprint:Keystone_5224_Battery_Contact" H 3550 4650 60  0001 C CNN
F 3 "" H 3550 4650 60  0000 C CNN
	1    3550 4650
	1    0    0    -1  
$EndComp
$Comp
L Bottom_Battery_Plate-rescue:BatCont J8
U 1 1 57322B64
P 2000 4650
F 0 "J8" H 2300 4650 60  0000 C CNN
F 1 "BatCont" H 2000 4650 60  0000 C CNN
F 2 "Sphere_lib_footprint:Keystone_5224_Battery_Contact" H 2000 4650 60  0001 C CNN
F 3 "" H 2000 4650 60  0000 C CNN
	1    2000 4650
	-1   0    0    -1  
$EndComp
$Comp
L Bottom_Battery_Plate-rescue:BatCont J18
U 1 1 57322BCC
P 3550 5050
F 0 "J18" H 3400 5050 60  0000 C CNN
F 1 "BatCont" H 3700 5050 60  0000 C CNN
F 2 "Sphere_lib_footprint:Keystone_5224_Battery_Contact" H 3550 5050 60  0001 C CNN
F 3 "" H 3550 5050 60  0000 C CNN
	1    3550 5050
	1    0    0    -1  
$EndComp
$Comp
L Bottom_Battery_Plate-rescue:BatCont J9
U 1 1 57322BD2
P 2000 5050
F 0 "J9" H 2300 5050 60  0000 C CNN
F 1 "BatCont" H 2000 5050 60  0000 C CNN
F 2 "Sphere_lib_footprint:Keystone_5224_Battery_Contact" H 2000 5050 60  0001 C CNN
F 3 "" H 2000 5050 60  0000 C CNN
	1    2000 5050
	-1   0    0    -1  
$EndComp
Wire Wire Line
	2900 1750 3500 1750
Wire Wire Line
	2900 2150 3500 2150
Wire Wire Line
	2900 2500 3500 2500
Wire Wire Line
	2900 2900 3500 2900
Wire Wire Line
	2900 3300 3500 3300
Wire Wire Line
	2900 3700 3500 3700
Wire Wire Line
	2900 4100 3500 4100
Wire Wire Line
	2900 4500 3500 4500
Wire Wire Line
	2900 4900 3500 4900
$Comp
L Bottom_Battery_Plate-rescue:FUSE F1
U 1 1 57601F0B
P 2650 1750
F 0 "F1" H 2750 1800 50  0000 C CNN
F 1 "FUSE" H 2550 1700 50  0000 C CNN
F 2 "Sphere_lib:poly_1812" H 2650 1750 50  0001 C CNN
F 3 "" H 2650 1750 50  0000 C CNN
	1    2650 1750
	1    0    0    -1  
$EndComp
$Comp
L Bottom_Battery_Plate-rescue:FUSE F2
U 1 1 57601F71
P 2650 2150
F 0 "F2" H 2750 2200 50  0000 C CNN
F 1 "FUSE" H 2550 2100 50  0000 C CNN
F 2 "Sphere_lib:poly_1812" H 2650 2150 50  0001 C CNN
F 3 "" H 2650 2150 50  0000 C CNN
	1    2650 2150
	1    0    0    -1  
$EndComp
$Comp
L Bottom_Battery_Plate-rescue:FUSE F3
U 1 1 57601FDD
P 2650 2500
F 0 "F3" H 2750 2550 50  0000 C CNN
F 1 "FUSE" H 2550 2450 50  0000 C CNN
F 2 "Sphere_lib:poly_1812" H 2650 2500 50  0001 C CNN
F 3 "" H 2650 2500 50  0000 C CNN
	1    2650 2500
	1    0    0    -1  
$EndComp
$Comp
L Bottom_Battery_Plate-rescue:FUSE F4
U 1 1 57602036
P 2650 2900
F 0 "F4" H 2750 2950 50  0000 C CNN
F 1 "FUSE" H 2550 2850 50  0000 C CNN
F 2 "Sphere_lib:poly_1812" H 2650 2900 50  0001 C CNN
F 3 "" H 2650 2900 50  0000 C CNN
	1    2650 2900
	1    0    0    -1  
$EndComp
$Comp
L Bottom_Battery_Plate-rescue:FUSE F5
U 1 1 57602098
P 2650 3300
F 0 "F5" H 2750 3350 50  0000 C CNN
F 1 "FUSE" H 2550 3250 50  0000 C CNN
F 2 "Sphere_lib:poly_1812" H 2650 3300 50  0001 C CNN
F 3 "" H 2650 3300 50  0000 C CNN
	1    2650 3300
	1    0    0    -1  
$EndComp
$Comp
L Bottom_Battery_Plate-rescue:FUSE F6
U 1 1 576020F9
P 2650 3700
F 0 "F6" H 2750 3750 50  0000 C CNN
F 1 "FUSE" H 2550 3650 50  0000 C CNN
F 2 "Sphere_lib:poly_1812" H 2650 3700 50  0001 C CNN
F 3 "" H 2650 3700 50  0000 C CNN
	1    2650 3700
	1    0    0    -1  
$EndComp
$Comp
L Bottom_Battery_Plate-rescue:FUSE F7
U 1 1 57602165
P 2650 4100
F 0 "F7" H 2750 4150 50  0000 C CNN
F 1 "FUSE" H 2550 4050 50  0000 C CNN
F 2 "Sphere_lib:poly_1812" H 2650 4100 50  0001 C CNN
F 3 "" H 2650 4100 50  0000 C CNN
	1    2650 4100
	1    0    0    -1  
$EndComp
$Comp
L Bottom_Battery_Plate-rescue:FUSE F8
U 1 1 576021CC
P 2650 4500
F 0 "F8" H 2750 4550 50  0000 C CNN
F 1 "FUSE" H 2550 4450 50  0000 C CNN
F 2 "Sphere_lib:poly_1812" H 2650 4500 50  0001 C CNN
F 3 "" H 2650 4500 50  0000 C CNN
	1    2650 4500
	1    0    0    -1  
$EndComp
$Comp
L Bottom_Battery_Plate-rescue:FUSE F9
U 1 1 576023BC
P 2650 4900
F 0 "F9" H 2750 4950 50  0000 C CNN
F 1 "FUSE" H 2550 4850 50  0000 C CNN
F 2 "Sphere_lib:poly_1812" H 2650 4900 50  0001 C CNN
F 3 "" H 2650 4900 50  0000 C CNN
	1    2650 4900
	1    0    0    -1  
$EndComp
Wire Wire Line
	2050 1750 2400 1750
Wire Wire Line
	2400 2150 2050 2150
Wire Wire Line
	2050 2500 2400 2500
Wire Wire Line
	2050 2900 2400 2900
Wire Wire Line
	2050 3300 2400 3300
Wire Wire Line
	2050 3700 2400 3700
Wire Wire Line
	2050 4100 2400 4100
Wire Wire Line
	2050 4500 2400 4500
Wire Wire Line
	2050 4900 2400 4900
$Comp
L Device:LED D1
U 1 1 5DCF8C6C
P 7800 3450
F 0 "D1" V 7839 3333 50  0000 R CNN
F 1 "LED" V 7748 3333 50  0000 R CNN
F 2 "Sphere_lib_footprint:CreeCXB" H 7800 3450 50  0001 C CNN
F 3 "~" H 7800 3450 50  0001 C CNN
	1    7800 3450
	0    -1   -1   0   
$EndComp
$Comp
L Device:LED D2
U 1 1 5DCF9917
P 7800 3900
F 0 "D2" V 7839 3783 50  0000 R CNN
F 1 "LED" V 7748 3783 50  0000 R CNN
F 2 "Sphere_lib_footprint:CreeCXB" H 7800 3900 50  0001 C CNN
F 3 "~" H 7800 3900 50  0001 C CNN
	1    7800 3900
	0    -1   -1   0   
$EndComp
$Comp
L Device:LED D3
U 1 1 5DCF9B94
P 8350 3450
F 0 "D3" V 8389 3333 50  0000 R CNN
F 1 "LED" V 8298 3333 50  0000 R CNN
F 2 "Sphere_lib_footprint:CreeCXB" H 8350 3450 50  0001 C CNN
F 3 "~" H 8350 3450 50  0001 C CNN
	1    8350 3450
	0    -1   -1   0   
$EndComp
$Comp
L Device:LED D4
U 1 1 5DCF9F79
P 8350 3900
F 0 "D4" V 8389 3783 50  0000 R CNN
F 1 "LED" V 8298 3783 50  0000 R CNN
F 2 "Sphere_lib_footprint:CreeCXB" H 8350 3900 50  0001 C CNN
F 3 "~" H 8350 3900 50  0001 C CNN
	1    8350 3900
	0    -1   -1   0   
$EndComp
$Comp
L Device:LED D6
U 1 1 5DCFA2D7
P 8850 3900
F 0 "D6" V 8889 3783 50  0000 R CNN
F 1 "LED" V 8798 3783 50  0000 R CNN
F 2 "Sphere_lib_footprint:CreeCXB" H 8850 3900 50  0001 C CNN
F 3 "~" H 8850 3900 50  0001 C CNN
	1    8850 3900
	0    -1   -1   0   
$EndComp
$Comp
L Device:LED D5
U 1 1 5DCFA53D
P 8850 3450
F 0 "D5" V 8889 3333 50  0000 R CNN
F 1 "LED" V 8798 3333 50  0000 R CNN
F 2 "Sphere_lib_footprint:CreeCXB" H 8850 3450 50  0001 C CNN
F 3 "~" H 8850 3450 50  0001 C CNN
	1    8850 3450
	0    -1   -1   0   
$EndComp
Wire Wire Line
	8850 3600 8850 3750
Wire Wire Line
	8350 3600 8350 3750
Wire Wire Line
	7800 3600 7800 3750
Wire Wire Line
	7800 4050 7800 4250
Wire Wire Line
	7800 4250 7450 4250
Wire Wire Line
	7450 4400 8350 4400
Wire Wire Line
	8350 4400 8350 4050
Wire Wire Line
	7450 4550 8850 4550
Wire Wire Line
	8850 4550 8850 4050
Wire Wire Line
	7800 3150 7450 3150
Wire Wire Line
	7800 3150 7800 3300
Wire Wire Line
	7450 3000 8350 3000
Wire Wire Line
	8350 3000 8350 3300
Wire Wire Line
	7450 2850 8850 2850
Wire Wire Line
	8850 2850 8850 3300
Wire Wire Line
	8100 1700 8600 1700
Wire Wire Line
	8100 1800 8600 1800
Wire Wire Line
	7600 1300 7100 1300
Wire Wire Line
	7600 1700 7100 1700
Wire Wire Line
	7600 1800 7100 1800
Text Label 7100 1400 0    50   ~ 0
LED3+
Text Label 7100 1700 0    50   ~ 0
LED2-
Text Label 7100 1300 0    50   ~ 0
LED3-
Text Label 8600 1700 2    50   ~ 0
LED1-
Text Label 8600 1800 2    50   ~ 0
LED1+
Text Label 7450 2850 0    50   ~ 0
LED3+
Text Label 7450 3000 0    50   ~ 0
LED2+
Text Label 7450 3150 0    50   ~ 0
LED1+
Text Label 7100 1800 0    50   ~ 0
LED2+
Text Label 7450 4250 0    50   ~ 0
LED1-
Text Label 7450 4400 0    50   ~ 0
LED2-
Text Label 7450 4550 0    50   ~ 0
LED3-
$Comp
L Connector_Generic:Conn_02x02_Odd_Even J20
U 1 1 5DD2E91B
P 7800 1700
F 0 "J20" H 7850 1917 50  0000 C CNN
F 1 "Conn_02x02_Odd_Even" H 7850 1826 50  0000 C CNN
F 2 "Sphere_lib_footprint:MilliGrid-RA-SMD-02x02-Header" H 7800 1700 50  0001 C CNN
F 3 "~" H 7800 1700 50  0001 C CNN
	1    7800 1700
	1    0    0    -1  
$EndComp
Wire Wire Line
	7100 1400 7600 1400
$Comp
L power:GNDA #PWR0101
U 1 1 5DD7AB5A
P 5900 5950
F 0 "#PWR0101" H 5900 5700 50  0001 C CNN
F 1 "GNDA" H 5905 5777 50  0000 C CNN
F 2 "" H 5900 5950 50  0001 C CNN
F 3 "" H 5900 5950 50  0001 C CNN
	1    5900 5950
	1    0    0    -1  
$EndComp
Wire Wire Line
	5900 5950 5900 5550
Text Label 5900 5550 0    50   ~ 0
GND
Text Label 8200 1300 0    50   ~ 0
GND
$Comp
L Connector_Generic:Conn_02x02_Odd_Even J19
U 1 1 5DD2CF1A
P 7800 1300
F 0 "J19" H 7850 1517 50  0000 C CNN
F 1 "Conn_02x02_Odd_Even" H 7850 1426 50  0000 C CNN
F 2 "Sphere_lib_footprint:MilliGrid-RA-SMD-02x02-Header" H 7800 1300 50  0001 C CNN
F 3 "~" H 7800 1300 50  0001 C CNN
	1    7800 1300
	1    0    0    -1  
$EndComp
Wire Wire Line
	8100 1300 8150 1300
Wire Wire Line
	8100 1400 8150 1400
Wire Wire Line
	8150 1400 8150 1300
Connection ~ 8150 1300
Wire Wire Line
	8150 1300 8200 1300
$EndSCHEMATC
